%YAML 1.1
%TAG !u! tag:unity3d.com,2011:
--- !u!114 &11400000
MonoBehaviour:
  m_ObjectHideFlags: 0
  m_PrefabParentObject: {fileID: 0}
  m_PrefabInternal: {fileID: 0}
  m_GameObject: {fileID: 0}
  m_Enabled: 1
  m_EditorHideFlags: 0
  m_Script: {fileID: 11500000, guid: 5a6ff4c0c59514244ba4b04da29f6132, type: 3}
  m_Name: Ace of Clubs
  m_EditorClassIdentifier: 
  cardID: AC
  cardImage: {fileID: 21300000, guid: 68439d30df183b54ebbc5785a035c964, type: 3}
